locale	concept	prerequisite
cmn-Hans-CN	灰口铸铁	
cmn-Latn-CN	huīkǒu zhùtiě	
deu-Latn-DE	Grauguss [m]	
eng-Latn-US	gray cast iron . gray iron	
jpn-Hrkt-JP	ねずみちゅうてつ . ふつうちゅうてつ	
jpn-Jpan-JP	ねずみ鋳鉄 . 普通鋳鉄	
rus-Cyrl-RU	се́рый чугу́н	
