locale	concept	prerequisite
cmn-Hans-CN	加工硬化	
cmn-Latn-CN	jiāgōng yìnghuà	
deu-Latn-DE	Kaltumformung	
eng-Latn-US	strain hardening . work hardening	
fra-Latn-FR	écrouissage	
jpn-Hrkt-JP	かこうこうか	
jpn-Jpan-JP	加工硬化	
rus-Cyrl-RU	нагарто́вка . наклёп	
