locale	concept	prerequisite
cmn-Hans-CN	不定积分 . 反导函数 . 原函数	
cmn-Latn-CN	búdìng jīfēn . fǎn dǎohánshù . yuánhánshù	
deu-Latn-DE	Stammfunktion . unbestimmtes Integral	
eng-Latn-US	antiderivative . indefinite integral . inverse derivative . primitive function . primitive integral	
fra-Latn-FR	primitive	
jpn-Hrkt-JP	ふていせきぶん	
jpn-Jpan-JP	不定積分	
rus-Cyrl-RU	антипроизво́дной . первообра́зная . примити́вной функцией	
