locale	concept	prerequisite
cmn-Hans-CN	定积分	
cmn-Latn-CN	dìngjīfēn	
deu-Latn-DE	bestimmte Integral	
eng-Latn-US	definite integral	
fra-Latn-FR	intégrale [f] définie	
jpn-Hrkt-JP	ていせきぶん	
jpn-Jpan-JP	定積分	
rus-Cyrl-RU	определённый интегра́л	
