locale	concept	prerequisite
cmn-Hans-CN	同分异构体	
cmn-Latn-CN	tóngfèn yìgòu tǐ	
deu-Latn-DE	Isomer [n]	
eng-Latn-US	isomer	
fra-Latn-FR	isomère [m]	
jpn-Hrkt-JP	いせいたい	
jpn-Jpan-JP	異性体	
rus-Cyrl-RU	изоме́р	
