locale	concept	prerequisite
cmn-Hans-CN	运算数 . 运算元	
cmn-Latn-CN	yùnsuànshù . yùnsuànyuán	
deu-Latn-DE	Operand [m]	
eng-Latn-US	operand	
fra-Latn-FR	opérande [m]	
jpn-Hrkt-JP	ひえんざんし	
jpn-Jpan-JP	被演算子	
rus-Cyrl-RU	опера́нд	
