locale	concept	prerequisite
cmn-Hans-CN	全集	数学对象
cmn-Latn-CN	quánjí	shùxué duìxiàng
deu-Latn-DE	Allmenge . Grundmenge . Universalmenge	mathematisches Objekt
eng-Latn-US	universal set	mathematical object
fra-Latn-FR	ensemble référentiel	objet mathématique
jpn-Hrkt-JP	ぜんたいしゅうごう . ふへんしゅうごう	すうがくてきたいしょう
jpn-Jpan-JP	全体集合 . 普遍集合	数学的対象
rus-Cyrl-RU	универса́льное мно́жество	
