locale	concept	prerequisite
cmn-Hans-CN	引力势能	势能 . 位能 _ 引力 . 重力
cmn-Latn-CN	yǐnlì shìnéng	shìnéng . wèìnéng _ yǐnlì . zhònglì
deu-Latn-DE	potentielle Gravitationsenergie	Gravitation . Gravitationskraft _ Lageenergie . potentielle Energie . potenzielle Energie
eng-Latn-US	gravitational energy . gravitational potential energy	gravitation . gravity _ potential energy
fra-Latn-FR	énergie potentielle gravitationnelle	gravitation _ énergie potentielle
jpn-Hrkt-JP	じゅうりょくポテンシャルエネルギー	いちエネルギー _ じゅうりょく
jpn-Jpan-JP	重力ポテンシャルエネルギー	位置エネルギー _ 重力
rus-Cyrl-RU	гравитациóнная энéргия	всеми́рное тяготе́ние . гравита́ция . притяже́ние . тяготе́ние _ потенциа́льная эне́ргия
