locale	concept	prerequisite
cmn-Hans-CN	变速圆周运动	圆周运动 _ 匀速运动
cmn-Latn-CN	biànsù yuánzhōu yùndòng	yuánzhōu yùndòng _ yúnsù yùndòng
deu-Latn-DE	ungleichförmige Kreisbewegung	Kreisbewegung _ gleichförmige Bewegung
eng-Latn-US	non-uniform circular motion	circular motion _ uniform motion
fra-Latn-FR	mouvement circulaire non uniforme	mouvement circulaire _ mouvement uniforme
jpn-Hrkt-JP	ひとうそくえんうんどう . ふとうそくえんうんどう	えんうんどう _ とうそくうんどう
jpn-Jpan-JP	非等速円運動 . 不等速円運動	円運動 _ 等速運動
rus-Cyrl-RU	неравноме́рное кругово́е движе́ние	кругово́е движе́ние _ равноме́рное движе́ние
