locale	concept	prerequisite
cmn-Hans-CN	匀速直线运动	匀速运动 _ 直线运动
cmn-Latn-CN	yúnsù zhíxiàn yùndòng	yúnsù yùndòng _ zhíxiàn yùndòng
deu-Latn-DE	gleichförmige geradlinige Bewegung	gleichförmige Bewegung _ gradlinige Bewegung . lineare Bewegung
eng-Latn-US	uniform rectilinear motion	linear motion . rectilinear motion _ uniform motion
fra-Latn-FR	mouvement rectiligne uniforme	mouvement rectiligne _ mouvement uniforme
jpn-Hrkt-JP	とうそくちょくせんうんどう	ちょくどうせんうんどう _ とうそくうんどう
jpn-Jpan-JP	等速直線運動	直動線運動 _ 等速運動
rus-Cyrl-RU	равноме́рное прямолине́йное движе́ние	прямолине́йное движе́ние _ равноме́рное движе́ние
