locale	concept	prerequisite
cmn-Hans-CN	匀加速度运动	开普勒第一定律 . 轨道定律 . 椭圆定律 _ 运动
cmn-Latn-CN	yún jiāsùdù yùndòng	Kāipǔlè dìyī dìnglǜ . guǐdào dìnglǜ . tuǒyuán dìnglǜ _ yùndòng
deu-Latn-DE	gleichmäßig beschleunigte Bewegung	Bewegung _ erstes keplersches Gesetz
eng-Latn-US	uniformly accelerated motion	Kepler’s first law _ motion
fra-Latn-FR	mouvement d’accélération uniforme	loi des orbites . première loi de Kepler _ mouvement
jpn-Hrkt-JP	とうかそくどうんどう	うんどう _ だえんきどうのほうそく . ケプラーのだいいちほうそく
jpn-Jpan-JP	等加速度運動	運動 _ 楕円軌道の法則 . ケプラーの第一法則
rus-Cyrl-RU	равноуско́ренное движе́ние	движе́ние _ зако́н э́ллипсов . пе́рвый зако́н Ке́плера
