locale	concept	prerequisite
cmn-Hans-CN	异步电路	
cmn-Latn-CN	yìbù diànlù	
deu-Latn-DE	asynchroner Schaltkreis	
eng-Latn-US	asynchronous circuit . clockless circuit . self-timed circuit	
fra-Latn-FR	circuit asynchrone	
rus-Cyrl-RU	асинхро́нная ло́гика	
