locale	concept	prerequisite
cmn-Hans-CN	巴克豪森稳定性准则	
cmn-Latn-CN	Bākèháosēn wěndìngxìng zhǔnzé	
deu-Latn-DE	Stabilitätskriterium von Barkhausen	
eng-Latn-US	Barkhausen stability criterion	
fra-Latn-FR	critère de stabilité de Barkhausen	
