locale	concept	prerequisite
cmn-Hans-CN	冷阴极管	
cmn-Latn-CN	lěng yīnjíguǎn	
deu-Latn-DE	Kaltkathodenröhre	
eng-Latn-US	cold cathode	
fra-Latn-FR	cathode froide	
jpn-Hrkt-JP	れいいんきょくかん	
jpn-Jpan-JP	冷陰極管	
rus-Cyrl-RU	холо́дный като́д	
