locale	concept	prerequisite
cmn-Hans-CN	串扰 . 串音干扰	
cmn-Latn-CN	chuànrǎo . chuànyīn gānrǎo	
deu-Latn-DE	Nebensprechen . Übersprechen	
eng-Latn-US	crosstalk	
fra-Latn-FR	diaphonie	
jpn-Hrkt-JP	こんせん . ろうわ . クロストーク	
jpn-Jpan-JP	混線 . 漏話 . クロストーク	
rus-Cyrl-RU	перекрёстные поме́хи	
