locale	concept	prerequisite
cmn-Hans-CN	梯度定理 . 线积分基本定理	
cmn-Latn-CN	tīdù dìnglǐ . xiànjīfēn jīběn dìnglǐ	
eng-Latn-US	fundamental theorem of calculus for line integrals . gradient theorem	
fin-Latn-FI	théorème du gradient	
