locale	concept	prerequisite
cmn-Hans-CN	高斯散度定理 . 高斯通量理论 . 散度定理	
cmn-Latn-CN	Gāosī sǎndù dìnglǐ . Gāosī tōngliàng lǐlùn . sǎndù dìnglǐ	
deu-Latn-DE	Divergenzsatz [m] . Satz [m] von Gauß-Ostrogradski . gauß’scher Integralsatz	
eng-Latn-US	Gauss’s theorem . Ostrogradsky’s theorem . divergence theorem	
fra-Latn-FR	théorème de Green-Ostrogradski . théorème de flux-divergence . théorème de la divergence	
jpn-Hrkt-JP	はっさんていり . ガウスのていり	
jpn-Jpan-JP	発散定理 . ガウスの定理	
rus-Cyrl-RU	Фо́рмула Острогра́дского — Га́усса	
