locale	concept	prerequisite
cmn-Hans-CN	乘法逆元 . 倒数	 _ 乘法
cmn-Latn-CN	chéngfǎ nìyuán . dàoshù	 _ chéngfǎ
deu-Latn-DE	Kehrwert [m] . Reziproke [n] . reziprokes Wert	 _ Multiplikation
eng-Latn-US	multiplicative inverse . reciprocal	 _ multiplication
fra-Latn-FR	inverse [m]	 _ multiplication
jpn-Hrkt-JP	ぎゃくすう	 _ じょうほう
jpn-Jpan-JP	逆数	 _ 乗法
rus-Cyrl-RU	обра́тное число́	 _ умноже́ние
