locale	concept	prerequisite
cmn-Hans-CN	复分解反应 . 双置换反应	
cmn-Latn-CN	fùfēnjiě fǎnyìng . shuāngzhìhuàn fǎnyìng	
deu-Latn-DE	Metathesereaktion . doppelte Umsetzung	
eng-Latn-US	double displacement reaction . salt metathesis reaction	
fra-Latn-FR	métathèse [f]	
jpn-Hrkt-JP	にじゅうちかんはんのう . ふくぶんかい . メタセシス	
jpn-Jpan-JP	二重置換反応 . 複分解 . メタセシス	
