locale	concept	prerequisite
cmn-Hans-CN	表面	
cmn-Latn-CN	biǎomiàn	
deu-Latn-DE	Oberfläche	
eng-Latn-US	surface (geometry)	
fra-Latn-FR	surface [f]	
jpn-Hrkt-JP	ひょうめん	
jpn-Jpan-JP	表面	
rus-Cyrl-RU	пове́рхность	
