locale	concept	prerequisite
cmn-Hans-CN	除法	算术运算
cmn-Latn-CN	chúfǎ	suànshù yùnsuàn
deu-Latn-DE	Division	arithmetische Operation
eng-Latn-US	division	arithmetic operation
fra-Latn-FR	division	opération arithmétique
jpn-Hrkt-JP	じょざん . じょほう . わりざん	
jpn-Jpan-JP	除算 . 除法 . 割り算	
rus-Cyrl-RU	деле́ние	
