locale	concept	prerequisite
cmn-Hans-CN	直尺	
cmn-Latn-CN	zhíchǐ	
deu-Latn-DE	Lineal [n]	
eng-Latn-US	line gauge . rule . ruler . scale	
fra-Latn-FR	règle [f]	
jpn-Hrkt-JP	じょうぎ	
jpn-Jpan-JP	定規	
rus-Cyrl-RU	лине́йка	
