locale	concept	prerequisite
cmn-Hans-CN	功 . 机械功	 _  _  _ 力
cmn-Latn-CN	gōng . jīxiègōng	 _  _  _ lì
deu-Latn-DE	Arbeit	 _  _  _ Kraft [f]
eng-Latn-US	work	 _  _ displacement _ force
fra-Latn-FR	travail d’une force	 _  _  _ force
jpn-Hrkt-JP	しごと（りきがく）	 _  _  _ ちから
jpn-Jpan-JP	仕事（力学）	 _  _  _ 力
rus-Cyrl-RU	механи́ческая рабо́та . рабо́та	 _  _  _ си́ла
