locale	concept	prerequisite
cmn-Hans-CN	矛盾	
cmn-Latn-CN	máodùn	
deu-Latn-DE	Kontradiktion	
eng-Latn-US	contradiction	
fra-Latn-FR	antilogie . contradiction	
jpn-Hrkt-JP	むじゅん	
jpn-Jpan-JP	矛盾	
rus-Cyrl-RU	противоре́чие	
