locale	concept	prerequisite
cmn-Hans-CN	充分性	
cmn-Latn-CN	chōngfènxìng	
deu-Latn-DE	Hinlänglichkeit	
eng-Latn-US	sufficiency	
fra-Latn-FR	suffisance	
jpn-Hrkt-JP	じゅうぶんせい	
jpn-Jpan-JP	十分性	
rus-Cyrl-RU	доста́точность	
