locale	concept	prerequisite
cmn-Hans-CN	电压表 . 伏特计	
cmn-Latn-CN	diànyābiǎo . fútèjì	
deu-Latn-DE	Spannungsmesser [m] . Spannungsmessgerät [m]	
eng-Latn-US	voltmeter	
fra-Latn-FR	voltmètre [m]	
jpn-Hrkt-JP	でんあつけい	
jpn-Jpan-JP	電圧計	
rus-Cyrl-RU	вольтме́тр	
