locale	concept	prerequisite
cmn-Hans-CN	计算机断层扫描 . 计算机体层成像	
cmn-Latn-CN	jìsuànjī duàncéng sǎomiáo . jìsuànjī tǐcéng chéngxiàng	
deu-Latn-DE	Computertomografie . Computertomographie	
eng-Latn-US	computed tomography scan	
fra-Latn-FR	scanographie . tomodensitométrie	
jpn-Hrkt-JP	コンピュータだんそうさつえい	
jpn-Jpan-JP	コンピュータ断層撮影	
rus-Cyrl-RU	компью́терная томогра́фия	
