locale	concept	prerequisite
deu-Latn-DE	Binomialreihe . binomische Reihe	
eng-Latn-US	binomial series	
fra-Latn-FR	formule [f] du binôme généralisée	
jpn-Hrkt-JP	にこうきゅうすう	
jpn-Jpan-JP	二項級数	
rus-Cyrl-RU	биномиа́льный ряд	
