locale	concept	prerequisite
cmn-Hans-CN	麦克劳林级数	泰勒级数
cmn-Latn-CN	Màikèláolín jíshù	Tàilè jíshù
deu-Latn-DE	Maclaurin-Reihe	Taylorreihe
eng-Latn-US	Maclaurin series	Taylor series
fra-Latn-FR	série de Maclaurin	série de Taylor
jpn-Hrkt-JP	マクローリンきゅうすう	テイラーきゅうすう
jpn-Jpan-JP	マクローリン級数	テイラー級数
rus-Cyrl-RU	ряд Маклорена	ряд Те́йлора
