locale	concept	prerequisite
cmn-Hans-CN	泰勒级数	
cmn-Latn-CN	Tàilè jíshù	
deu-Latn-DE	Taylorreihe	
eng-Latn-US	Taylor series	
fra-Latn-FR	série de Taylor	
jpn-Hrkt-JP	テイラーきゅうすう	
jpn-Jpan-JP	テイラー級数	
rus-Cyrl-RU	ряд Те́йлора	
