locale	concept	prerequisite
cmn-Hans-CN	凝结 . 凝析	
cmn-Latn-CN	níngjié . níngxī	
deu-Latn-DE	Kondensation	
eng-Latn-US	condensation	
fra-Latn-FR	condensation	
jpn-Hrkt-JP	ぎょうしゅく	
jpn-Jpan-JP	凝縮	
rus-Cyrl-RU	конденса́ция	
