locale	concept	prerequisite
cmn-Hans-CN	汽化	
cmn-Latn-CN	qìhuà	
deu-Latn-DE	Verdampfen	
eng-Latn-US	vaporization	
fra-Latn-FR	vaporisation	
jpn-Hrkt-JP	きか	
jpn-Jpan-JP	気化	
rus-Cyrl-RU	парообразова́ние	
