locale	concept	prerequisite
cmn-Hans-CN	钝角三角形	 _ 钝角三角形
cmn-Latn-CN	dùnjiǎo sānjiǎoxíng	 _ dùnjiǎo sānjiǎoxíng
deu-Latn-DE	stumpfwinkliges Dreieck	 _ stumpfwinkliges Dreieck
eng-Latn-US	obtuse triangle	 _ obtuse triangle
fra-Latn-FR	triangle [m] amblygone . triangle [m] obtus . triangle obtusangle [m]	 _ triangle [m] amblygone . triangle [m] obtus . triangle obtusangle [m]
jpn-Hrkt-JP	どんかくさんかくけい	 _ どんかくさんかくけい
jpn-Jpan-JP	鈍角三角形	 _ 鈍角三角形
