locale	concept	prerequisite
cmn-Hans-CN	梯形	 _ 
cmn-Latn-CN	tīxíng	 _ 
deu-Latn-DE	Trapez [n]	 _ 
eng-Latn-US	trapezoid	 _ parallelism
fra-Latn-FR	trapèze [m]	 _ 
jpn-Hrkt-JP	だいけい	 _ 
jpn-Jpan-JP	台形	 _ 
rus-Cyrl-RU	трапе́ция	 _ 
