locale	concept	prerequisite
cmn-Hans-CN	无刷直流电动机 . 直流无刷电动机	
cmn-Latn-CN	wúshuā zhíliú diàndòngjī . zhíliú wúshuā diàndòngjī	
deu-Latn-DE	bürstenloser Gleichstrommotor	
eng-Latn-US	brushless DC motor . electronically commutated motor	
fra-Latn-FR	moteur sans balais	
jpn-Hrkt-JP	ちょくりゅうむせいりゅうしでんどうき	
jpn-Jpan-JP	直流無整流子電動機	
rus-Cyrl-RU	ве́нтильный электродви́гатель	
