locale	concept	prerequisite
cmn-Hans-CN	十进制小数点	小数部分
cmn-Latn-CN	shíjìnzhì xiǎoshùdiǎn	xiǎoshù bùfen
deu-Latn-DE	Dezimaltrennzeichen	Dezimalen [f-pl] . Dezimalstellen [f-pl] . Nachkommaanteil [m] . Nachkommastellen [f-pl]
eng-Latn-US	decimal separator	decimal part . fractional part
fra-Latn-FR	séparateur décimal	
rus-Cyrl-RU	десяти́чная запята́я . десяти́чная то́чка . десяти́чный раздели́тель	дро́бная часть
