locale	concept	prerequisite
cmn-Hans-CN	工程计数法	 _ 幂 . 指数
cmn-Latn-CN	gōngchéng jìshùfǎ	 _ mì . zhǐshù
deu-Latn-DE	technische Notation	 _ Exponent [m] . Hochzahl [f]
eng-Latn-US	engineering notation . technical notation	 _ exponent
fra-Latn-FR	notation ingénieur	 _ exposant
rus-Cyrl-RU	инжене́рная нота́ция	 _ 
