locale	concept	prerequisite
cmn-Hans-CN	无穷	
cmn-Latn-CN	wúqióng	
deu-Latn-DE	Unendlichkeit	
eng-Latn-US	infinity	
fra-Latn-FR	infini [m]	
jpn-Hrkt-JP	むげん	
jpn-Jpan-JP	無限	
rus-Cyrl-RU	бесконе́чность	
zxx-Zmth-ZZ	oo	
