locale	concept	prerequisite
cmn-Hans-CN	数线 . 数轴	 _ 数
cmn-Latn-CN	shùxiàn . shùzhóu	 _ shù
deu-Latn-DE	Zahlengerade . Zahlenstrahl [m]	 _ Zahl [f] (abstrakte Identität)
eng-Latn-US	number line	line _ number (abstract identity)
fra-Latn-FR	ligne [f] numérique	 _ nombre [m]
jpn-Hrkt-JP	すうちょくせん	 _ かず
jpn-Jpan-JP	数直線	 _ 数
rus-Cyrl-RU	числова́я ось . числова́я пряма́я	 _ число́ (абстра́ктная иденти́чность)
