locale	concept	prerequisite
cmn-Hans-CN	记数法 . 记数系统 . 数制	
cmn-Latn-CN	jìshùfǎ . jìshùxìtǒng . shùzhì	
deu-Latn-DE	Zahlensystem [n] Ziffernsystem [n]	
eng-Latn-US	numeral system	
fra-Latn-FR	système de numération	
jpn-Hrkt-JP	めいすうほう	
jpn-Jpan-JP	命数法	
rus-Cyrl-RU	систе́ма счисле́ния	
