locale	concept	prerequisite
cmn-Hans-CN	数量级	整数
cmn-Latn-CN	shùliàngjí	zhěngshù
deu-Latn-DE	Größenordnung	Ganzzahl [f] . ganze Zahl
eng-Latn-US	order of magnitude	integer
fra-Latn-FR	ordre [m] de grandeur [f]	enti
jpn-Hrkt-JP	けた	せいすう
jpn-Jpan-JP	桁	整数
rus-Cyrl-RU	поря́док величи́ны	це́лое число́
