locale	concept	prerequisite
cmn-Hans-CN	透射线 . 折射线	
cmn-Latn-CN	tòushèxiàn . zhéshèxiàn	
deu-Latn-DE	gebrochene Strahl	
eng-Latn-US	refracted ray . transmitted ray	
jpn-Hrkt-JP	くっせつこうせん	
jpn-Jpan-JP	屈折光線	
