locale	concept	prerequisite
cmn-Hans-CN	斯涅尔定律	
cmn-Latn-CN	Sīniè’ěr dìnglǜ	
deu-Latn-DE	Brechungsgesetz [n] . snellius-Gesetz [n] . snelliussches Brechungsgesetz . snelliussches Gesetz	
eng-Latn-US	Snell–Descartes law . Snell–s law . ibn-Sahl law . law of refraction	
fra-Latn-FR	lois [f-pl] de Snell-Descartes	
jpn-Hrkt-JP	スネルのほうそく	
jpn-Jpan-JP	スネルの法則	
rus-Cyrl-RU	зако́н Сне́ллиуса . зако́н Снелла . зако́н Снелля	
