locale	concept	prerequisite
cmn-Hans-CN	全内反射 . 全反射	
cmn-Latn-CN	quán nèifǎnshè . quánfǎnshè	
deu-Latn-DE	Totalreflexion	
eng-Latn-US	total internal reflection	
fra-Latn-FR	réflexion totale	
rus-Cyrl-RU	по́лное вну́треннее отраже́ние	
