locale	subject
cmn-Hans-CN	软件工程
cmn-Latn-CN	ruǎnjiàn gōngchéng
deu-Latn-DE	Softwaretechnik . Softwaretechnologie
eng-Latn-US	software engineering
fra-Latn-FR	génie logiciel . ingénierie logicielle
jpn-Hrkt-JP	ソフトウェアこうがく
jpn-Jpan-JP	ソフトウェア工学
rus-Cyrl-RU	програ́ммная инжене́ри
