locale	concept	prerequisite
cmn-Hans-CN	反三角函数	 _ 
cmn-Latn-CN	fǎn sānjiǎo hánshù	 _ 
deu-Latn-DE	Arkusfunktion . inverse Winkelfunktion . zyklometrische Funktion	 _ 
eng-Latn-US	antitrigonometric function . arcus function . cyclometric function . inverse trigonometric function	 _ 
fra-Latn-FR	fonction circulaire réciproque . fonction trigonométrique inverse	 _ 
jpn-Hrkt-JP	ぎゃくさんかくかんすう	 _ 
jpn-Jpan-JP	逆三角関数	 _ 
rus-Cyrl-RU	обра́тная тригонометри́ческая фу́нкция	 _ 
