locale	concept	prerequisite
cmn-Hans-CN	泊松比	负荷 . 荷载 . 结构荷重 . 载荷 . 载重 _ 伸长 _ 压缩
cmn-Latn-CN	Bósōng bǐ	fùhè . hèzài . jiégòu hèzhòng . zàihè . zàizhòng _ shēncháng _ yāsuō
deu-Latn-DE	Poissonzahl [f] . Querkontraktionszahl [f]	 _ Kompression _ Lastannahme
eng-Latn-US	Poisson’s ratio	compression _ elongation _ structural action . structural load
fra-Latn-FR	coefficient de Poisson	 _  _ compression
jpn-Hrkt-JP	ポアソンひ	 _ あっしゅく _ かじゅう
jpn-Jpan-JP	ポアソン比	 _ 圧縮 _ 荷重
rus-Cyrl-RU	коэффицие́нт Пуассо́на	 _  _ сжа́тие
zxx-Zmth-ZZ	nu	 _  _ 
