locale	concept	prerequisite
cmn-Hans-CN	底数（指数） . 基数（指数）	幂运算 . 指数运算
cmn-Latn-CN	dǐshù (zhǐshù) . jīshù (zhǐshù)	mìyùnsuàn . zhǐshù yùnsuàn
deu-Latn-DE	Basis [f] (Potenz)	Potenz
eng-Latn-US	base (exponentiation)	exponentiation
fra-Latn-FR	base [f] (exponentiation)	exponentiation [f]
jpn-Hrkt-JP	てい（べきえんざん）	べきえんざん . べきじょう
jpn-Jpan-JP	底（冪演算）	冪演算 . 冪乗
rus-Cyrl-RU	основа́нием (возведе́ние в сте́пень)	
