locale	concept	prerequisite
cmn-Hans-CN	和	加法 _ 运算数 . 运算元
cmn-Latn-CN	hé	jiāfǎ _ yùnsuànshù . yùnsuànyuán
deu-Latn-DE	Summe	Addition _ Operand [m]
eng-Latn-US	sum	addition _ operand
fra-Latn-FR	somme [f]	addition _ opérande [m]
jpn-Hrkt-JP	わ	かさん . かほう . たしざん . よせざん _ ひえんざんし
jpn-Jpan-JP	和	加算 . 加法 . 足し算 . 寄せ算 _ 被演算子
rus-Cyrl-RU	су́мма	опера́нд _ прибавле́ние . сложе́ние
