locale	concept	prerequisite
cmn-Hans-CN	RLC电路	
cmn-Latn-CN	RLC diànlù	
deu-Latn-DE	RLC-Schwingkreis [m]	
eng-Latn-US	RLC circuit	
fra-Latn-FR	circuit RLC	
jpn-Hrkt-JP	アールエルシーかいろ	
jpn-Jpan-JP	RLC回路	
rus-Cyrl-RU	колеба́тельный ко́нтур	
