locale	concept	prerequisite
cmn-Hans-CN	逃逸速度	
cmn-Latn-CN	táoyì sùdù	
deu-Latn-DE	Entweichgeschwindigkeit . Fluchtgeschwindigkeit	
eng-Latn-US	escape velocity	
fra-Latn-FR	vitesse de libération	
jpn-Hrkt-JP	だっしゅつそくど	
jpn-Jpan-JP	脱出速度	
rus-Cyrl-RU	втора́я косми́ческая ско́рость	
