locale	concept	prerequisite
cmn-Hans-CN	抽象化	 _ 观念 . 概念
cmn-Latn-CN	chōuxiànghuà	 _ guānniàn . gàiniàn
deu-Latn-DE	Abstraktion	 _ Begriff [m]
eng-Latn-US	abstraction	 _ concept
fra-Latn-FR	abstraction	 _ concept
jpn-Hrkt-JP	ちゅうしょうか	 _ がいねん
jpn-Jpan-JP	抽象化	 _ 概念
rus-Cyrl-RU	абстра́кция	 _ поня́тие
