locale	subject
cmn-Hans-CN	生命科学
cmn-Latn-CN	shēngmìng kēxué
deu-Latn-DE	Biowissenschaft . Lebenswissenschaft
eng-Latn-US	life science
fra-Latn-FR	bioscience . science de la vie
jpn-Hrkt-JP	せいめいかがく
jpn-Jpan-JP	生命科学
rus-Cyrl-RU	нау́ки о жи́зни
