locale	concept	prerequisite
cmn-Hans-CN	梅林变换	
cmn-Latn-CN	Méilín biànhuàn	
deu-Latn-DE	Mellin-Transformation	
eng-Latn-US	Mellin transform	
fra-Latn-FR	transformation de Mellin	
jpn-Hrkt-JP	メリンへんかん	
jpn-Jpan-JP	メリン変換	
rus-Cyrl-RU	преобразова́ние Меллина	
zxx-Zmth-ZZ	ccM	
