locale	concept	prerequisite
cmn-Hans-CN	非晶合金变压器	
cmn-Latn-CN	fēijīng héjīn biànyāqì	
eng-Latn-US	amorphous metal transformer	
jpn-Hrkt-JP	アモルファスへんあつき	
jpn-Jpan-JP	アモルファス変圧器	
pes-Aran-IR	ترانسفورماتور فلز آمورف	
