locale	concept	prerequisite
cmn-Hans-CN	伯德图 . 波特图	
cmn-Latn-CN	Bódé tú . Bōtè tú	
deu-Latn-DE	Bode-Diagramm [n]	
eng-Latn-US	Bode plot	
fra-Latn-FR	diagramme [m] de Bode	
jpn-Hrkt-JP	ボードせんず	
jpn-Jpan-JP	ボード線図	
