locale	concept	prerequisite
cmn-Hans-CN	函数极限	
cmn-Latn-CN	hánshù jíxiàn	
deu-Latn-DE	Grenzwert [m] einer Funktion . Limes [m] einer Funktion	
eng-Latn-US	limit of a function	
fra-Latn-FR	limite [f] d’une fonction	
jpn-Hrkt-JP	かんすうのきょくげん	
jpn-Jpan-JP	関数の極限	
rus-Cyrl-RU	преде́лом фу́нкции	
