locale	concept	prerequisite
cmn-Hans-CN	偏导数	
cmn-Latn-CN	piāndǎoshù	
deu-Latn-DE	partielle Ableitung	
eng-Latn-US	partial derivative	
fra-Latn-FR	dérivée partielle	
jpn-Hrkt-JP	へんびぶん	
jpn-Jpan-JP	偏微分	
rus-Cyrl-RU	ча́стная произво́дная	
