locale	concept	prerequisite
cmn-Hans-CN	逆卡诺循环	
cmn-Latn-CN	nì Kǎnuò xúnhuán	
deu-Latn-DE	umgekehrter Carnot-Prozess . umgekehrter Carnot-Zyklus	
eng-Latn-US	reversed Carnot cycle	
fra-Latn-FR	cycle [m] de Carnot inversé	
jpn-Hrkt-JP	ぎゃくカルノーサイクル	
jpn-Jpan-JP	逆カルノーサイクル	
rus-Cyrl-RU	обра́тный цикл Карно́	
