locale	concept	prerequisite
cmn-Hans-CN	退火	
cmn-Latn-CN	tuìhuǒ	
deu-Latn-DE	Glühen	
eng-Latn-US	annealing	
fra-Latn-FR	recuit	
jpn-Hrkt-JP	しょうどん . やきならし . アニーリング	
jpn-Jpan-JP	焼鈍 . 焼鈍し／焼き鈍し／焼なまし／焼きなまし . アニーリング	
rus-Cyrl-RU	о́тжиг	
