locale	concept	prerequisite
cmn-Hans-CN	回火	
cmn-Latn-CN	huíhuǒ	
deu-Latn-DE	Anlassen . Bläuen	
eng-Latn-US	tempering	
fra-Latn-FR	revenu	
jpn-Hrkt-JP	やきもどし	
jpn-Jpan-JP	焼戻し／焼き戻し／焼もどし／焼きもどし	
rus-Cyrl-RU	о́тпуск	
