locale	concept	prerequisite
cmn-Hans-CN	平方毫米	
cmn-Latn-CN	píngfāng háomǐ	
deu-Latn-DE	Quadratmillimeter	
eng-Latn-US	square millimeter	
fra-Latn-FR	milimètre carré	
jpn-Hrkt-JP	へいほうミリ . へいほうミリメートル	
jpn-Jpan-JP	平方ミリ . 平方ミリメートル	
