locale	concept	prerequisite
cmn-Hans-CN	等角投影 . 等轴测投影	
cmn-Latn-CN	děngjiǎo tóuyǐng . děngzhóucè tóuyǐng	
deu-Latn-DE	isometrische Darstellung	
eng-Latn-US	isometric projection	
fra-Latn-FR	perspective [f] isométrique	
jpn-Hrkt-JP	とうかくず . とうかくとうえいず	
jpn-Jpan-JP	等角図 . 等角投影図	
rus-Cyrl-RU	изометри́ческая прое́кция	
