locale	concept	prerequisite
cmn-Hans-CN	失真	
cmn-Latn-CN	shīzhēn	
deu-Latn-DE	Verzerrung	
eng-Latn-US	distortion	
fra-Latn-FR	distorsion	
jpn-Hrkt-JP	ひずみ [0]	
jpn-Jpan-JP	歪み	
kor-Hang-KR	디스토션	
kor-Kore-KR	디스토션	
rus-Cyrl-RU	искаже́ния сигна́ла	
