locale	concept	prerequisite
cmn-Hans-CN	拉莫尔方程	
cmn-Latn-CN	Lāmò’ěr fāngchéng	
deu-Latn-DE	Larmor-Formel [f]	
eng-Latn-US	Larmor formula	
fra-Latn-FR	formule de Larmor	
jpn-Hrkt-JP	ラーモアのこうしき	
jpn-Jpan-JP	ラーモアの公式	
rus-Cyrl-RU	фо́рмула Лармора	
