locale	subject
cmn-Hans-CN	欧几里得几何
cmn-Latn-CN	Ōujīlǐdé jǐhé
deu-Latn-DE	euklidische Geometrie
eng-Latn-US	Euclidean geometry
fra-Latn-FR	géométrie euclidienne
jpn-Hrkt-JP	ユークリ-ッドきかがく
jpn-Jpan-JP	ユークリッド幾何学
rus-Cyrl-RU	евкли́дова геоме́три
