locale	concept	prerequisite
cmn-Hans-CN	向下取整	无条件简化
cmn-Latn-CN	xiàngxià qǔzhěng	wútiáojiàn jiǎnhuà
deu-Latn-DE	Abrunden	
eng-Latn-US	rounding down . rounding towards negative infinity	direct rounding
