locale	concept	prerequisite
cmn-Hans-CN	连分数 . 繁分数	 _ 乘法逆元 . 倒数 _ 整数
cmn-Latn-CN	fánfēnshù . liánfēnshù	 _ chéngfǎ nìyuán . dàoshù _ zhěngshù
deu-Latn-DE	Kettenbruch [m]	 _ Ganzzahl [f] . ganze Zahl _ Kehrwert [m] . Reziproke [n] . reziprokes Wert
eng-Latn-US	continued fraction	 _ integer _ multiplicative inverse . reciprocal
fra-Latn-FR	fraction continue	 _ enti _ inverse [m]
jpn-Hrkt-JP	れんぶんすう	 _ ぎゃくすう _ せいすう
jpn-Jpan-JP	連分数	 _ 逆数 _ 整数
rus-Cyrl-RU	непреры́вная дробь . цепна́я дробь	 _ обра́тное число́ _ це́лое число́
