locale	concept	prerequisite
cmn-Hans-CN	帕斯卡定律	
cmn-Latn-CN	Pàsīkǎ dìnglǜ	
deu-Latn-DE	pascalsches Gesetz	
eng-Latn-US	Pascal’s law . Pascal’s principle . principle of transmission of fluid-pressure	
fra-Latn-FR	loi de Pascal . principe de Pascal . principe de transmission de pression de fluide . théorème de Pascal	
jpn-Hrkt-JP	パスカルのほうそく	
jpn-Jpan-JP	パスカルの法則	
rus-Cyrl-RU	зако́н Паска́ля	
