locale	subject
cmn-Hans-CN	同调代数
cmn-Latn-CN	tóngdiào dàishù
deu-Latn-DE	homologische Algebra
eng-Latn-US	homological algebra
fra-Latn-FR	algèbre [f] homologique
jpn-Hrkt-JP	ホモロジーだいすうがく
jpn-Jpan-JP	ホモロジー代数学
rus-Cyrl-RU	гомологи́ческая а́лгебра
