locale	concept	prerequisite
cmn-Hans-CN	载波	
cmn-Latn-CN	zàibō	
deu-Latn-DE	Träger . Trägersignal [n]	
eng-Latn-US	carrier . carrier signal . carrier wave	
fra-Latn-FR	onde porteuse . porteuse	
jpn-Hrkt-JP	はんそうは	
jpn-Jpan-JP	搬送波	
rus-Cyrl-RU	несу́щий сигна́л	
