locale	subject
cmn-Hans-CN	矩阵力学
cmn-Latn-CN	jǔzhèn lìxué
deu-Latn-DE	Matrizenmechanik
eng-Latn-US	matrix mechanics
fra-Latn-FR	mécanique [f] matricielle
jpn-Hrkt-JP	ぎょうれつりきがく
jpn-Jpan-JP	行列力学
rus-Cyrl-RU	ма́тричная меха́ник
