locale	concept	prerequisite
cmn-Hans-CN	PV图 . 压容图	
cmn-Latn-CN	PV tú . yāróngtú	
deu-Latn-DE	Druck-Volumen-Diagramm [n] . P-V-Diagramm [n]	
eng-Latn-US	P–V diagram . pressure–volume diagram	
fra-Latn-FR	diagramme [m] P-V . diagramme [m] de Clapeyron . diagramme [m] pression-volume	
jpn-Hrkt-JP	あつりょくーようせきず . ピーブイせんず	
jpn-Jpan-JP	圧力-容積図 . PV線図	
rus-Cyrl-RU	PV-диаграмма . диагра́мма давле́ние-объём	
