locale	subject
cmn-Hans-CN	材料科学
cmn-Latn-CN	cáiliào kēxué
deu-Latn-DE	Materialwissenschaft und Werkstofftechnik
eng-Latn-US	material science
fra-Latn-FR	science des matériaux [m-pl]
jpn-Hrkt-JP	ざいりょうかがく . ざいりょうこうがく
jpn-Jpan-JP	材料科学 . 材料工学
rus-Cyrl-RU	материалове́дени
