locale	concept	prerequisite
cmn-Hans-CN	磁道炮 . 轨道炮	
cmn-Latn-CN	cídàopào . guǐdàopào	
deu-Latn-DE	Railgun . Schienengewehr [n] . Schienenkanone	
eng-Latn-US	railgun	
fra-Latn-FR	canon à rails . canon électro-magnétique	
jpn-Hrkt-JP	レールガン	
jpn-Jpan-JP	レールガン	
rus-Cyrl-RU	рельсотро́н	
