locale	subject
cmn-Hans-CN	化学热力学
cmn-Latn-CN	huàxué rèlìxué
deu-Latn-DE	chemische Thermodynamik
eng-Latn-US	chemical thermodynamics
fra-Latn-FR	thermodynamique [f] chimique
jpn-Hrkt-JP	かがくねつりきがく
jpn-Jpan-JP	化学熱力学
rus-Cyrl-RU	хими́ческая термодина́мик
