locale	concept	prerequisite
cmn-Hans-CN	毫克	
cmn-Latn-CN	háokè	
deu-Latn-DE	Milligramm [n]	
eng-Latn-US	milligram	
fra-Latn-FR	milligramme [f]	
jpn-Hrkt-JP	ミリグラム	
jpn-Jpan-JP	ミリグラム	
rus-Cyrl-RU	миллигра́мм	
