locale	concept	prerequisite
cmn-Hans-CN	复数	实数 _ 虚数
cmn-Latn-CN	fùshù	shíshù _ xūshù
deu-Latn-DE	komplexe Zahl	imaginäre Zahl _ reelle Zahl
eng-Latn-US	complex number	imaginary number _ real number
fra-Latn-FR	nombre [m] complexe	nombre [m] imaginaire _ nombre réel
jpn-Hrkt-JP	ふくそすう	きょすう _ じっすう
jpn-Jpan-JP	複素数	虚数 _ 実数
rus-Cyrl-RU	ко́мплексное/компле́ксное число́	веще́ственное числó _ мни́мое число́
zxx-Zmth-ZZ	CC . م	II . frI . ت _ RR . ح
