locale	concept	prerequisite
cmn-Hans-CN	正数	数
cmn-Latn-CN	zhèngshù	shù
deu-Latn-DE	positive Zahl	Zahl [f] (abstrakte Identität)
eng-Latn-US	positive number	number (abstract identity)
fra-Latn-FR	nombre positif	nombre [m]
jpn-Hrkt-JP	せいすう . せいのすう	かず
jpn-Jpan-JP	正数 . 正の数	数
rus-Cyrl-RU	число́ положи́тельно	число́ (абстра́ктная иденти́чность)
