locale	concept	prerequisite
cmn-Hans-CN	实数	数线 . 数轴
cmn-Latn-CN	shíshù	shùxiàn . shùzhóu
deu-Latn-DE	reelle Zahl	Zahlengerade . Zahlenstrahl [m]
eng-Latn-US	real number	number line
fra-Latn-FR	nombre réel	ligne [f] numérique
jpn-Hrkt-JP	じっすう	すうちょくせん
jpn-Jpan-JP	実数	数直線
rus-Cyrl-RU	веще́ственное числó	числова́я ось . числова́я пряма́я
zxx-Zmth-ZZ	RR . ح	
