locale	concept	prerequisite
cmn-Hans-CN	数字滤波器	
cmn-Latn-CN	shùzì lǜbōqì	
deu-Latn-DE	Digitalfilter [m/n] . digitaler/digitales Filter	
eng-Latn-US	digital filter	
fra-Latn-FR	filtre numérique	
jpn-Hrkt-JP	ディジタルフィルタ	
jpn-Jpan-JP	ディジタルフィルタ	
rus-Cyrl-RU	цифрово́й фильтр	
