locale	concept	prerequisite
cmn-Hans-CN	高通滤波器	
cmn-Latn-CN	gāotōng lǜbōqì	
deu-Latn-DE	Hochpass-Filter [n/m] . Tiefensperre	
eng-Latn-US	high-pass filter	
fra-Latn-FR	filtre passe-haut	
rus-Cyrl-RU	фильтр ве́рхних часто́т	
