locale	subject
cmn-Hans-CN	航天动力学
cmn-Latn-CN	hángtiān dònglìxué
deu-Latn-DE	Raumflugmechanik
eng-Latn-US	astrodynamics . orbital mechanics
fra-Latn-FR	astrodynamique . mécanique spatiale
jpn-Hrkt-JP	きどうりきがく
jpn-Jpan-JP	軌道力学
rus-Cyrl-RU	астродина́мик
