locale	concept	prerequisite
cmn-Hans-CN	马尔可夫链	事件 . 随机事件
cmn-Latn-CN	Mǎ’ěrkěfū liàn	shìjiàn . suíjī shìjiàn
deu-Latn-DE	Markow-Kette . Markow-Prozess [m]	Ereignis . Zufallsereignis
eng-Latn-US	Markov chain . Markov process	event
fra-Latn-FR	chaîne [f] de Markov	événement
jpn-Hrkt-JP	マルコフれんさ	じしょう
jpn-Jpan-JP	マルコフ連鎖	事象
rus-Cyrl-RU	це́пь Ма́ркова	случа́йное собы́тие
