locale	concept	prerequisite
cmn-Hans-CN	概率分布	函数 _ 随机试验
cmn-Latn-CN	gàilǜ fēnbù	hánshù _ suíjī shìyàn
deu-Latn-DE	Wahrscheinlichkeitsmaß [n]	Funktion _ Zufallsexperiment . Zufallsversuch [m] . Zufallsvorgang [m]
eng-Latn-US	probability distribution	experiment . trial _ function
fra-Latn-FR	loi [f] de probabilité	expérience aléatoire _ fonction
jpn-Hrkt-JP	かくりつぶんぷ	 _ しこう（試行） [0]
jpn-Jpan-JP	確率分布	 _ 試行
rus-Cyrl-RU	распределе́ние вероя́тностей	 _ случа́йный экспериме́нт
