locale	concept	prerequisite
cmn-Hans-CN	反电动势	电磁感应 _ 电动势
cmn-Latn-CN	fǎn diàndòngshì	diàncí gǎnyìng _ diàndòngshì
eng-Latn-US	back electromotive force . counter-electromotive force	electromagnetic induction . magnetic induction _ electromotance . electromotive force
