locale	subject
cmn-Hans-CN	回归分析
cmn-Latn-CN	huíguī fēnxī
deu-Latn-DE	Regressionsanalyse
eng-Latn-US	regression analysis
fra-Latn-FR	analyse [f] de régression
jpn-Hrkt-JP	かいきぶんせき
jpn-Jpan-JP	回帰分析
rus-Cyrl-RU	регрессио́нный ана́ли
