locale	concept	prerequisite
cmn-Hans-CN	电化学腐蚀	
cmn-Latn-CN	diànhuàxué fǔshí	
deu-Latn-DE	Bimetallkorrosion . Kontaktkorrosion . galvanische Korrosion	
eng-Latn-US	bimetallic corrosion . dissimilar metal corrosion . galvanic corrosion 	
jpn-Hrkt-JP	いしゅきんぞくせっしょくふしょく	
jpn-Jpan-JP	異種金属接触腐食	
