locale	concept	prerequisite
cmn-Hans-CN	十进制	
cmn-Latn-CN	shíjìnzhì	
deu-Latn-DE	Dezimalsystem [n] . Zehnersystem [n] . dekadisches System	
eng-Latn-US	base-10 . decimal	
fra-Latn-FR	système décimal	
jpn-Hrkt-JP	じっしんほう / じゅっしんほう	
jpn-Jpan-JP	十進法	
rus-Cyrl-RU	десяти́чная систе́ма счисле́ния	
