locale	concept	prerequisite
cmn-Hans-CN	朗道自由能 . 大位能	
cmn-Latn-CN	Lǎngdào zìyóunéng . dàwèinéng	
deu-Latn-DE	Landau-Potential [f] . großkanonische Potential	
eng-Latn-US	Landau energy . Landau free energy . grand potential	
jpn-Hrkt-JP	グランドポテンシャル	
jpn-Jpan-JP	グランドポテンシャル	
rus-Cyrl-RU	большо́й термодинами́ческий потенциа́л . потенциа́л Ланда́у	
