locale	subject
cmn-Hans-CN	统计力学
cmn-Latn-CN	tǒngjì lìxué
deu-Latn-DE	statistische Mechanik
eng-Latn-US	statistical mechanics
fra-Latn-FR	physique [f] statistique
jpn-Hrkt-JP	とうけいりきがく
jpn-Jpan-JP	統計力学
rus-Cyrl-RU	статисти́ческая меха́ника . статисти́ческая термодина́мик
