locale	concept	prerequisite
cmn-Hans-CN	酒精灯	
cmn-Latn-CN	jiǔjīngdēng	
deu-Latn-DE	Alkoholbrenner	
eng-Latn-US	alcohol burner . spirit lamp	
jpn-Hrkt-JP	アルコールランプ	
jpn-Jpan-JP	アルコールランプ	
rus-Cyrl-RU	спирто́вка	
