locale	concept	prerequisite
cmn-Hans-CN	巴斯德移液器 . 滴管	
cmn-Latn-CN	Bāsīdé yíyèqì . dīguǎn	
deu-Latn-DE	Augenpipette	
eng-Latn-US	Pasteur pipette . eye dropper	
fra-Latn-FR	pipette Pasteur	
jpn-Hrkt-JP	スポイト	
jpn-Jpan-JP	スポイト	
rus-Cyrl-RU	Пасте́ровская пипе́тка . пипе́тка Пасте́ра	
