locale	concept	prerequisite
cmn-Hans-CN	平衡常数	
cmn-Latn-CN	pínghéng chángshù	
deu-Latn-DE	Gleichgewichtskonstante . Massenwirkungskonstante	
eng-Latn-US	equilibrium constant	
fra-Latn-FR	constante [f] d’équilibre [m]	
jpn-Hrkt-JP	へいこうていすう	
jpn-Jpan-JP	平衡定数	
rus-Cyrl-RU	конста́нта равнове́сия	
zxx-Zmth-ZZ	K	
