locale	concept	prerequisite
cmn-Hans-CN	水解	
cmn-Latn-CN	shuǐjiě	
deu-Latn-DE	Hydrolyse	
eng-Latn-US	hydrolysis	
fra-Latn-FR	hydrolyse [f]	
jpn-Hrkt-JP	かすいぶんかい	
jpn-Jpan-JP	加水分解	
rus-Cyrl-RU	гидро́лиз	
