locale	concept	prerequisite
cmn-Hans-CN	孤电子对 . 孤对电子	
cmn-Latn-CN	gū diànzǐduì . gūduì diànzǐ	
deu-Latn-DE	freies Elektronenpaar	
eng-Latn-US	lone pair . non-bonding pair . unshared pair	
fra-Latn-FR	doublet non liant	
jpn-Hrkt-JP	こりつでんしつい . ひきょうゆうでんしつい	
jpn-Jpan-JP	孤立電子対 . 非共有電子対	
