locale	concept	prerequisite
cmn-Hans-CN	主族元素	
cmn-Latn-CN	zhǔzú yuánsù	
deu-Latn-DE	Hauptgruppe	
eng-Latn-US	main-group element . representative element	
fra-Latn-FR	groupe principal	
jpn-Hrkt-JP	てんけいげんそ	
jpn-Jpan-JP	典型元素	
