locale	concept	prerequisite
cmn-Hans-CN	氧化剂	
cmn-Latn-CN	yǎnghuàjì	
deu-Latn-DE	Oxidationsmittel	
eng-Latn-US	oxidant . oxidizer . oxidizing agent	
fra-Latn-FR	agent d’oxydation . agent oxydant . oxydant	
jpn-Hrkt-JP	さんかざい	
jpn-Jpan-JP	酸化剤	
rus-Cyrl-RU	окисли́тель	
