locale	concept	prerequisite
cmn-Hans-CN	溶液	
cmn-Latn-CN	róngyè	
deu-Latn-DE	Lösung (Chemie)	
eng-Latn-US	solution (chemistry)	
fra-Latn-FR	solution (chimie)	
jpn-Hrkt-JP	ようえき	
jpn-Jpan-JP	溶液	
rus-Cyrl-RU	раство́р	
