locale	concept	prerequisite
cmn-Hans-CN	价电子	
cmn-Latn-CN	jiàdiànzǐ	
deu-Latn-DE	Außenelektronen . Valenzelektronen	
eng-Latn-US	valence electron	
fra-Latn-FR	électron de valence	
jpn-Hrkt-JP	かでんし	
jpn-Jpan-JP	価電子	
rus-Cyrl-RU	вале́нтный электро́н	
