locale	concept	prerequisite
eng-Latn-US	Kolakoski sequence . Oldenburger–Kolakoski sequence	
fra-Latn-FR	suite [f] de Kolakoski	
rus-Cyrl-RU	после́довательность Колакоски . после́довательность Ольденбургера — Колакоски	
