locale	concept	prerequisite
cmn-Hans-CN	反函数	逆映射
cmn-Latn-CN	fǎnhánshù	nìyìngshè
deu-Latn-DE	Umkehrfunktion . inverse Funktion	Umkehrabbildung . inverse Abbildung
eng-Latn-US	anti-function . inverse function	inverse mapping
fra-Latn-FR	fonction réciproque	bijection réciproque
jpn-Hrkt-JP	ぎゃくかんすう	ぎゃくしゃぞう
jpn-Jpan-JP	逆函数	逆写像
rus-Cyrl-RU	обра́тная фу́нкция	обра́тное отображе́ние
