locale	subject
cmn-Hans-CN	傅里叶分析
cmn-Latn-CN	Fùlǐyè fēnxī
deu-Latn-DE	Fourier-Analyse [f] . Fourier-Analysis [f]
eng-Latn-US	Fourier analysis
fra-Latn-FR	analyse [f] de Fourier
jpn-Hrkt-JP	フーリエかいせき
jpn-Jpan-JP	フーリエ解析
rus-Cyrl-RU	ана́лиз Фурье
