locale	concept	prerequisite
cmn-Hans-CN	克拉泼振荡器	
cmn-Latn-CN	Kèlāpō zhèndàngqì	
deu-Latn-DE	Clapp-Oszillator	
eng-Latn-US	Clapp oscillator	
fra-Latn-FR	Gouriet oscillator . clapp oscillator	
jpn-Hrkt-JP	クラップはっしんかいろ	
jpn-Jpan-JP	クラップ発振回路	
