locale	concept	prerequisite
cmn-Hans-CN	考毕兹振荡器 . 电容反馈式振荡器 . 电容三点式振荡器	
cmn-Latn-CN	Kǎobìzī zhèndàngqì . diànróng fǎnkuìshì zhèndàngqì . diànróng sāndiǎnshì zhèndàngqì	
deu-Latn-DE	Colpitts-Oszillator	
eng-Latn-US	Colpitts oscillator	
fra-Latn-FR	oscillateur Colpitts	
jpn-Hrkt-JP	コルピッツはっしんかいろ	
jpn-Jpan-JP	コルピッツ発振回路	
rus-Cyrl-RU	генера́тор Колпитца	
