locale	concept	prerequisite
deu-Latn-DE	Stromwandler	
eng-Latn-US	current transformer	
fra-Latn-FR	transformateur de courant	
jpn-Hrkt-JP	へんりゅうき	
jpn-Jpan-JP	変流器	
rus-Cyrl-RU	измери́тельный трансформа́тор то́ка	
