locale	subject
cmn-Hans-CN	土木工程
cmn-Latn-CN	tǔmù gōngchéng
deu-Latn-DE	Bauingenieurwesen [n]
eng-Latn-US	civil engineering
fra-Latn-FR	génie civil
jpn-Hrkt-JP	どぼくこうがく
jpn-Jpan-JP	土木工学
rus-Cyrl-RU	гражда́нское строи́тельство
