locale	concept	prerequisite
cmn-Hans-CN	直积	
cmn-Latn-CN	zhíjī	
deu-Latn-DE	direktes Produkt	
eng-Latn-US	direct product	
fra-Latn-FR	produit direct	
jpn-Hrkt-JP	ちょくせき	
jpn-Jpan-JP	直積	
rus-Cyrl-RU	прямо́е произведе́ние	
