locale	concept	prerequisite
cmn-Hans-CN	现象	
cmn-Latn-CN	xiànxiàng	
deu-Latn-DE	Phänomen	
eng-Latn-US	phenomenon [phenomena]	
fra-Latn-FR	phénomène [m]	
jpn-Hrkt-JP	げんしょう	
jpn-Jpan-JP	現象	
rus-Cyrl-RU	фено́мен	
