locale	concept	prerequisite
cmn-Hans-CN	有效性	
cmn-Latn-CN	yǒuxiàoxìng	
deu-Latn-DE	Allgemeingültigkeit	
eng-Latn-US	validity	
fra-Latn-FR	validité	
jpn-Hrkt-JP	だとうせい	
jpn-Jpan-JP	妥当性	
rus-Cyrl-RU	общезна́чимость	
