locale	subject
cmn-Hans-CN	人文学科
cmn-Latn-CN	rénwén xuékē
deu-Latn-DE	Studia [f-pl] humanitatis
eng-Latn-US	humanities
fra-Latn-FR	lettres [f-pl]
jpn-Hrkt-JP	じんぶんかがく . じんぶんがく
jpn-Jpan-JP	人文科学 . 人文学
rus-Cyrl-RU	гуманита́рные нау́ки
