locale	concept	prerequisite
cmn-Hans-CN	酸雨	
cmn-Latn-CN	suānyǔ	
deu-Latn-DE	saurer Regen	
eng-Latn-US	acid rain	
fra-Latn-FR	pluie acide	
jpn-Hrkt-JP	さんせいう	
jpn-Jpan-JP	酸性雨	
rus-Cyrl-RU	кисло́тный дождь	
