locale	concept	prerequisite
cmn-Hans-CN	硬度	塑性变形
cmn-Latn-CN	yìngdù	sùxìng biànxíng
deu-Latn-DE	Härte	plastische Verformbarkeit
eng-Latn-US	hardness	plastic deformation
fra-Latn-FR	dureté	déformation plastique
jpn-Hrkt-JP	かたさ	そせいへんけい
jpn-Jpan-JP	硬さ	塑性変形
rus-Cyrl-RU	твёрдость	
