locale	concept	prerequisite
cmn-Hans-CN	绝对温度 . 热力学温度	
cmn-Latn-CN	juéduì wēndù . rèlìxué wēndù	
deu-Latn-DE	absolute Temperatur . thermodynamische Temperatur	
eng-Latn-US	absolute temperature . thermodynamic temperature	
fra-Latn-FR	température absolue . température thermodynamique	
jpn-Hrkt-JP	ぜったいおんど . ねつりきがくおんど	
jpn-Jpan-JP	絶対温度 . 熱力学温度	
rus-Cyrl-RU	абсолю́тная температу́ра . термодинами́ческая температу́ра	
