locale	concept	prerequisite
cmn-Hans-CN	热力学基本关系	
cmn-Latn-CN	rèlìxué jīběn guānxi	
deu-Latn-DE	Fundamentalgleichung der Thermodynamik . Fundamentalrelation der Thermodynamik	
eng-Latn-US	fundamental thermodynamic relation	
jpn-Hrkt-JP	ねつりきがくのきほんしき	
jpn-Jpan-JP	熱力学の基本式	
