locale	concept	prerequisite
cmn-Hans-CN	理想气体	
cmn-Latn-CN	lǐxiǎng qìtǐ	
deu-Latn-DE	ideales Gas	
eng-Latn-US	ideal gas	
fra-Latn-FR	gaz parfait	
jpn-Hrkt-JP	りそうきたい	
jpn-Jpan-JP	理想気体	
rus-Cyrl-RU	идеа́льный газ	
