locale	concept	prerequisite
cmn-Hans-CN	焦尔定律	
cmn-Latn-CN	Jiāo’ěr dìnglǜ	
deu-Latn-DE	joulesches Gesetz	
eng-Latn-US	Joule’s first law . Joule’s law	
fra-Latn-FR	loi [f] de Joule	
jpn-Hrkt-JP	ジュールのほうそく	
jpn-Jpan-JP	ジュールの法則	
rus-Cyrl-RU	закон Джоуля — Ле́нца	
