locale	concept	prerequisite
cmn-Hans-CN	热能	
cmn-Latn-CN	rènéng	
deu-Latn-DE	Wärmeenergie . thermische Energie	
eng-Latn-US	thermal energy	
fra-Latn-FR	énergie thermique	
jpn-Hrkt-JP	ねつエネルギー	
jpn-Jpan-JP	熱エネルギー	
rus-Cyrl-RU	теплова́я эне́ргия	
