locale	concept	prerequisite
cmn-Hans-CN	直流电	 _ 电流
cmn-Latn-CN	zhíliúdiàn	 _ diànliú
deu-Latn-DE	Gleichstrom [m]	 _ elektrischer Strom
eng-Latn-US	direct current	 _ electric current
fra-Latn-FR	courant continu	 _ courant électrique
jpn-Hrkt-JP	ちょくりゅう	 _ でんりゅう
jpn-Jpan-JP	直流	 _ 電流
rus-Cyrl-RU	однонапра́вленный ток . постоя́нный ток	 _ электри́ческий ток . электрото́к
