locale	concept	prerequisite
cmn-Hans-CN	发动机 . 马达 . 引撉	 _  _ 运动
cmn-Latn-CN	fādòngjī . mǎdá . yǐnqíng	 _  _ yùndòng
deu-Latn-DE	Motor	 _  _ Bewegung
eng-Latn-US	engine . motor	 _  _ motion
fra-Latn-FR	moteur	 _  _ mouvement
jpn-Hrkt-JP	きかん . エンジン . モーター	 _  _ うんどう
jpn-Jpan-JP	機関 . エンジン . モーター	 _  _ 運動
rus-Cyrl-RU	дви́гатель	 _  _ движе́ние
