locale	concept	prerequisite
cmn-Hans-CN	连续函数	
cmn-Latn-CN	liánxù hánshù	
deu-Latn-DE	stetige Funktion	
eng-Latn-US	continuous function	
fra-Latn-FR	fonction continue	
jpn-Hrkt-JP	れんぞくかんすう	
jpn-Jpan-JP	連続関数	
