locale	concept	prerequisite
cmn-Hans-CN	凸函数	
cmn-Latn-CN	tūhánshù	
deu-Latn-DE	konvexe Funktion	
eng-Latn-US	convex function	
fra-Latn-FR	fonction convexe	
jpn-Hrkt-JP	とつかんすう	
jpn-Jpan-JP	凸関数	
rus-Cyrl-RU	вы́пуклая фу́нкция	
