locale	concept	prerequisite
cmn-Hans-CN	冶炼	
cmn-Latn-CN	yěliàn	
deu-Latn-DE	Verhüttung	
eng-Latn-US	smelting	
fra-Latn-FR	fonte [f] (procès [m])	
jpn-Hrkt-JP	せいれん	
jpn-Jpan-JP	製錬	
rus-Cyrl-RU	вы́плавка . пла́вка . плавле́ние	
