locale	concept	prerequisite
cmn-Hans-CN	光年	
cmn-Latn-CN	guāngnián	
deu-Latn-DE	Lichtjahr [n]	
eng-Latn-US	light year	
fra-Latn-FR	année lumière	
jpn-Hrkt-JP	こうねん／こうねん	
jpn-Jpan-JP	光年	
rus-Cyrl-RU	светово́й го́д	
