locale	concept	prerequisite
cmn-Hans-CN	等容过程	
cmn-Latn-CN	děngróng guòchéng	
deu-Latn-DE	isochore Zustandsänderung	
eng-Latn-US	constant-volume process . isochoric process . isometric process . isovolumetric process	
fra-Latn-FR	processus isochore	
jpn-Hrkt-JP	ていせきかてい	
jpn-Jpan-JP	定積過程	
rus-Cyrl-RU	изохо́рный проце́сс . изохори́ческий проце́сс	
