locale	concept	prerequisite
cmn-Hans-CN	可逆过程	
cmn-Latn-CN	kěnì guòchéng	
deu-Latn-DE	reversibler Prozess	
eng-Latn-US	reversible process	
fra-Latn-FR	processus réversible	
jpn-Hrkt-JP	かぎゃくかてい	
jpn-Jpan-JP	可逆過程	
rus-Cyrl-RU	обрати́мый проце́сс	
