locale	concept	prerequisite
cmn-Hans-CN	静摩擦力	
cmn-Latn-CN	jìngmócā lì	
deu-Latn-DE	Haftreibung	
eng-Latn-US	static friction	
fra-Latn-FR	frottement sec statique	
jpn-Hrkt-JP	せいしまさつりょく	
jpn-Jpan-JP	静止摩擦力	
rus-Cyrl-RU	стати́ческое тре́ние	
