locale	concept	prerequisite
cmn-Hans-CN	环形振荡器	
cmn-Latn-CN	huánxíng zhèndàngqì	
deu-Latn-DE	Ringoszillator	
eng-Latn-US	ring oscillator	
fra-Latn-FR	générateur de créneaux	
jpn-Hrkt-JP	リング・オシレータ	
jpn-Jpan-JP	リング・オシレータ	
rus-Cyrl-RU	кольцево́й генера́тор	
